{
  "data": [
    {
      "id": 1,
      "quoteNumber": "Q-2024-001",
      "clientId": 1,
      "clientName": "Client A",
      "description": "Website Development Services",
      "amount": 5000.00,
      "currency": "USD",
      "status": "draft",
      "validUntil": "2024-12-31",
      "createdAt": "2024-01-15T00:00:00.000Z",
      "updatedAt": "2024-01-15T00:00:00.000Z"
    },
    {
      "id": 2,
      "quoteNumber": "Q-2024-002",
      "clientId": 2,
      "clientName": "Client B",
      "description": "Mobile App Development",
      "amount": 8000.00,
      "currency": "USD",
      "status": "sent",
      "validUntil": "2024-12-31",
      "createdAt": "2024-01-14T00:00:00.000Z",
      "updatedAt": "2024-01-16T00:00:00.000Z"
    },
    {
      "id": 3,
      "quoteNumber": "Q-2024-003",
      "clientId": 3,
      "clientName": "Client C",
      "description": "Consulting Services",
      "amount": 2000.00,
      "currency": "USD",
      "status": "approved",
      "validUntil": "2024-12-31",
      "createdAt": "2024-01-13T00:00:00.000Z",
      "updatedAt": "2024-01-17T00:00:00.000Z"
    },
    {
      "id": 4,
      "quoteNumber": "Q-2024-004",
      "clientId": 4,
      "clientName": "Client D",
      "description": "E-commerce Platform",
      "amount": 12000.00,
      "currency": "USD",
      "status": "draft",
      "validUntil": "2024-12-31",
      "createdAt": "2024-01-12T00:00:00.000Z",
      "updatedAt": "2024-01-12T00:00:00.000Z"
    },
    {
      "id": 5,
      "quoteNumber": "Q-2024-005",
      "clientId": 5,
      "clientName": "Client E",
      "description": "API Development",
      "amount": 6000.00,
      "currency": "USD",
      "status": "sent",
      "validUntil": "2024-12-31",
      "createdAt": "2024-01-11T00:00:00.000Z",
      "updatedAt": "2024-01-15T00:00:00.000Z"
    },
    {
      "id": 6,
      "quoteNumber": "Q-2024-006",
      "clientId": 6,
      "clientName": "Client F",
      "description": "Database Design",
      "amount": 3500.00,
      "currency": "USD",
      "status": "draft",
      "validUntil": "2024-12-31",
      "createdAt": "2024-01-10T00:00:00.000Z",
      "updatedAt": "2024-01-10T00:00:00.000Z"
    },
    {
      "id": 7,
      "quoteNumber": "Q-2024-007",
      "clientId": 7,
      "clientName": "Client G",
      "description": "Cloud Migration",
      "amount": 15000.00,
      "currency": "USD",
      "status": "approved",
      "validUntil": "2024-12-31",
      "createdAt": "2024-01-09T00:00:00.000Z",
      "updatedAt": "2024-01-18T00:00:00.000Z"
    },
    {
      "id": 8,
      "quoteNumber": "Q-2024-008",
      "clientId": 8,
      "clientName": "Client H",
      "description": "Security Audit",
      "amount": 4500.00,
      "currency": "USD",
      "status": "sent",
      "validUntil": "2024-12-31",
      "createdAt": "2024-01-08T00:00:00.000Z",
      "updatedAt": "2024-01-16T00:00:00.000Z"
    },
    {
      "id": 9,
      "quoteNumber": "Q-2024-009",
      "clientId": 9,
      "clientName": "Client I",
      "description": "UI/UX Design",
      "amount": 7000.00,
      "currency": "USD",
      "status": "draft",
      "validUntil": "2024-12-31",
      "createdAt": "2024-01-07T00:00:00.000Z",
      "updatedAt": "2024-01-07T00:00:00.000Z"
    },
    {
      "id": 10,
      "quoteNumber": "Q-2024-010",
      "clientId": 10,
      "clientName": "Client J",
      "description": "DevOps Setup",
      "amount": 9000.00,
      "currency": "USD",
      "status": "approved",
      "validUntil": "2024-12-31",
      "createdAt": "2024-01-06T00:00:00.000Z",
      "updatedAt": "2024-01-19T00:00:00.000Z"
    }
  ],
  "pagination": {
    "page": 1,
    "limit": 10,
    "total": 100,
    "totalPages": 10
  }
}
